Sex;Age group;Mid-2019;Mid-2020
Persons;0 to 9;8007000;7939000
Persons;10 to 19;7611000;7734000
Persons;20 to 29;8667000;8608000
Persons;30 to 39;8893000;8931000
Persons;40 to 49;8422000;8404000
Persons;50 to 59;9067000;9128000
Persons;60 to 69;7123000;7215000
Persons;70 to 79;5644000;5768000
Persons;80 and over;3363000;3386000
