Week after vaccination;Age group;Count of Deaths involving COVID-19;Count of Non-COVID-19 Deaths;Normalized Deaths Count Of Deaths;Month Percent Vaccine Age
1;10-39;2;115;0;0
2;10-39;11;168;0;0
3;10-39;8;176;0;0
4;10-39;7;210;0;0
5;10-39;6;175;0;0
6;10-39;6;190;0;0
7;10-39;4;207;0;0
8;10-39;6;185;0;0
9;10-39;7;210;0;0
10;10-39;3;182;0;0
11;10-39;8;182;0;0
0;10-39;134;2577;0;0
1;40-49;5;175;0;0
2;40-49;14;275;0;0
3;40-49;14;336;0;0
4;40-49;10;330;0;0
5;40-49;14;353;0;0
6;40-49;10;349;0;0
7;40-49;12;386;0;0
8;40-49;10;373;0;0
9;40-49;12;374;0;0
10;40-49;13;358;0;0
11;40-49;13;353;0;0
0;40-49;328;5440;0;0
1;50-59;8;431;0;0
2;50-59;34;809;0;0
3;50-59;57;852;0;0
4;50-59;53;915;0;0
5;50-59;46;1034;0;0
6;50-59;26;1058;0;0
7;50-59;30;1063;0;0
8;50-59;27;1054;0;0
9;50-59;31;1091;0;0
10;50-59;26;1181;0;0
11;50-59;34;1038;0;0
0;50-59;1031;17598;0;0
1;60-69;35;950;0;0
2;60-69;120;1557;0;0
3;60-69;136;1842;0;0
4;60-69;120;2009;0;0
5;60-69;123;2073;0;0
6;60-69;95;2130;0;0
7;60-69;78;2227;0;0
8;60-69;67;2249;0;0
9;60-69;54;2255;0;0
10;60-69;58;2388;0;0
11;60-69;73;2278;0;0
0;60-69;2498;37013;0;0
1;70-79;104;2118;0;0
2;70-79;347;3600;0;0
3;70-79;508;4042;0;0
4;70-79;449;4333;0;0
5;70-79;345;4696;0;0
6;70-79;257;4929;0;0
7;70-79;198;5032;0;0
8;70-79;155;5120;0;0
9;70-79;151;5030;0;0
10;70-79;156;5250;0;0
11;70-79;170;5098;0;0
0;70-79;5907;83759;0;0
1;80-89;225;3395;0;0
2;80-89;843;5415;0;0
3;80-89;1263;6138;0;0
4;80-89;1148;6622;0;0
5;80-89;807;6949;0;0
6;80-89;635;7110;0;0
7;80-89;475;7270;0;0
8;80-89;380;7372;0;0
9;80-89;329;7400;0;0
10;80-89;266;7364;0;0
11;80-89;294;7225;0;0
0;80-89;9670;128807;0;0
1;90+;184;2403;0;0
2;90+;549;3865;0;0
3;90+;915;4426;0;0
4;90+;795;4670;0;0
5;90+;585;4798;0;0
6;90+;402;4853;0;0
7;90+;319;4863;0;0
8;90+;233;4951;0;0
9;90+;206;4970;0;0
10;90+;179;4750;0;0
11;90+;167;4640;0;0
0;90+;5983;81383;0;0
